cparedesverduga,laura_pincayf,LAURA PINCAY ,2015-08-29 19:19:25,RT @laura_pincayf: Taller de personajes con materiales reutilizados #economiacircular @edcom50 @espol @Andreapinoacost @cparedesverduga htt…
cparedesverduga,laura_pincayf,LAURA PINCAY ,2015-08-29 19:19:25,RT @laura_pincayf: Taller de personajes con materiales reutilizados #economiacircular @edcom50 @espol @Andreapinoacost @cparedesverduga htt…
cparedesverduga,BriaDS_6,Brianna Andrea,2015-08-29 19:19:18,RT @BriaDS_6: Taller: creación de un personaje a partir de materiales reciclados #economíacircular @espol @edcom50 http://t.co/XEZGuNbo01
cparedesverduga,FCSHEspol,FCSH - ESPOL,2015-08-28 17:32:36,RT @FCSHEspol: Mañana será un sábado excelente para un poco de ejercicio y ayudar a los emprendimientos de nuestros adultos mayores. http:/…
cparedesverduga,FCSHEspol,FCSH - ESPOL,2015-08-28 17:32:29,RT @FCSHEspol: Hoy Jorge Tognolotti intercambia la experiencia del programa del adulto mayor en la U. Lomas de Zamora—Argentina http://t.co…
cparedesverduga,FCSHEspol,FCSH - ESPOL,2015-08-28 17:32:24,RT @FCSHEspol: Deliciosas preparaciones y entusiasmo en la Feria de Micro—emprendimiento en @FCSHEspol. http://t.co/lhtNXqlvc9
cparedesverduga,karivalarezo,Karina Valarezo ,2015-08-28 17:32:08,RT @karivalarezo: http://t.co/RoklvezF9C
cparedesverduga,DeniseRodrig,Denise Rodriguez,2015-08-28 15:46:56,RT @DeniseRodrig: Representante de la Universidad del Adulto Mayor de Argentina #vinculacion @espol @cparedesverduga  @FCSHEspol http://t.c…
cparedesverduga,guidocaro,Guido Caicedo,2015-08-28 15:43:19,Excelente iniciativa @guidocaro  https://t.co/dKSJ4xvn4J
cparedesverduga,pricastil,priscila castillo,2015-08-28 15:42:27,RT @pricastil: Feria y gymkana IIE por aniversario 20 de IAPI. Excelente iniciativa! #FeriaIIE http://t.co/srV3F94QyI
cparedesverduga,FCSHEspol,FCSH - ESPOL,2015-08-28 15:36:35,RT @FCSHEspol: Con mucho entusiasmo nuestros adultos mayores ya casi listos para mostrar en los empresarios que se han convertido http://t.…
cparedesverduga,DeniseRodrig,Denise Rodriguez,2015-08-28 14:25:34,RT @DeniseRodrig: 1 pila contamina 5000 litros de agua #economiacircular #vinculacion @edcom50 http://t.co/YdOwc3i2r4
cparedesverduga,DeniseRodrig,Denise Rodriguez,2015-08-28 14:25:16,RT @DeniseRodrig: El Sr. Rector felicita a @edcom50 por el excelente trabajo #economiacircular #vinculacion @cparedesverduga http://t.co/AA…
cparedesverduga,DeniseRodrig,Denise Rodriguez,2015-08-28 14:25:01,RT @DeniseRodrig: Proyecto Ecomueble #economiacircular #vinculacion @cparedesverduga @edcom50 http://t.co/5qPX8ZY9pF
cparedesverduga,DeniseRodrig,Denise Rodriguez,2015-08-28 14:24:57,RT @DeniseRodrig: Proyecto Repilas #economiacircular #vinculacion @cparedesverduga @edcom50  @espol http://t.co/BTet3GubS8
cparedesverduga,DeniseRodrig,Denise Rodriguez,2015-08-28 14:24:26,RT @DeniseRodrig: Juegos infantiles con materiales de reciclaje #economiacircular #vinculacion @espol @cparedesverduga @edcom50 http://t.co…
cparedesverduga,laura_pincayf,LAURA PINCAY ,2015-08-29 19:19:25,RT @laura_pincayf: Taller de personajes con materiales reutilizados #economiacircular @edcom50 @espol @Andreapinoacost @cparedesverduga htt…
cparedesverduga,laura_pincayf,LAURA PINCAY ,2015-08-29 19:19:25,RT @laura_pincayf: Taller de personajes con materiales reutilizados #economiacircular @edcom50 @espol @Andreapinoacost @cparedesverduga htt…
cparedesverduga,laura_pincayf,LAURA PINCAY ,2015-08-29 19:19:25,RT @laura_pincayf: Taller de personajes con materiales reutilizados #economiacircular @edcom50 @espol @Andreapinoacost @cparedesverduga htt…
cparedesverduga,BriaDS_6,Brianna Andrea,2015-08-29 19:19:18,RT @BriaDS_6: Taller: creación de un personaje a partir de materiales reciclados #economíacircular @espol @edcom50 http://t.co/XEZGuNbo01
cparedesverduga,FCSHEspol,FCSH - ESPOL,2015-08-28 17:32:36,RT @FCSHEspol: Mañana será un sábado excelente para un poco de ejercicio y ayudar a los emprendimientos de nuestros adultos mayores. http:/…
cparedesverduga,FCSHEspol,FCSH - ESPOL,2015-08-28 17:32:29,RT @FCSHEspol: Hoy Jorge Tognolotti intercambia la experiencia del programa del adulto mayor en la U. Lomas de Zamora—Argentina http://t.co…
cparedesverduga,FCSHEspol,FCSH - ESPOL,2015-08-28 17:32:24,RT @FCSHEspol: Deliciosas preparaciones y entusiasmo en la Feria de Micro—emprendimiento en @FCSHEspol. http://t.co/lhtNXqlvc9
cparedesverduga,karivalarezo,Karina Valarezo ,2015-08-28 17:32:08,RT @karivalarezo: http://t.co/RoklvezF9C
cparedesverduga,DeniseRodrig,Denise Rodriguez,2015-08-28 15:46:56,RT @DeniseRodrig: Representante de la Universidad del Adulto Mayor de Argentina #vinculacion @espol @cparedesverduga  @FCSHEspol http://t.c…
cparedesverduga,guidocaro,Guido Caicedo,2015-08-28 15:43:19,Excelente iniciativa @guidocaro  https://t.co/dKSJ4xvn4J
cparedesverduga,pricastil,priscila castillo,2015-08-28 15:42:27,RT @pricastil: Feria y gymkana IIE por aniversario 20 de IAPI. Excelente iniciativa! #FeriaIIE http://t.co/srV3F94QyI
cparedesverduga,FCSHEspol,FCSH - ESPOL,2015-08-28 15:36:35,RT @FCSHEspol: Con mucho entusiasmo nuestros adultos mayores ya casi listos para mostrar en los empresarios que se han convertido http://t.…
cparedesverduga,DeniseRodrig,Denise Rodriguez,2015-08-28 14:25:34,RT @DeniseRodrig: 1 pila contamina 5000 litros de agua #economiacircular #vinculacion @edcom50 http://t.co/YdOwc3i2r4
cparedesverduga,DeniseRodrig,Denise Rodriguez,2015-08-28 14:25:16,RT @DeniseRodrig: El Sr. Rector felicita a @edcom50 por el excelente trabajo #economiacircular #vinculacion @cparedesverduga http://t.co/AA…
cparedesverduga,DeniseRodrig,Denise Rodriguez,2015-08-28 14:25:01,RT @DeniseRodrig: Proyecto Ecomueble #economiacircular #vinculacion @cparedesverduga @edcom50 http://t.co/5qPX8ZY9pF
cparedesverduga,DeniseRodrig,Denise Rodriguez,2015-08-28 14:24:57,RT @DeniseRodrig: Proyecto Repilas #economiacircular #vinculacion @cparedesverduga @edcom50  @espol http://t.co/BTet3GubS8
