SoloAmorEsp,5000
SoloAmorEsp,5000
iFotosGeniales,5000
UnMundoAlReves_,5000
DeMotivo,5000
CAJADEVERDADES,5000
RadioDiblu,5000
IopAnnii,30
emelexistagye,5000
ALU_UltraBB,3740
4GMobileTech,5000
LTEWorldSeries,5000
Telecom_Ec,5000
ALU_UltraBB,3740
LTEWorldSeries,5000
LTEWorldSeries,5000
CNNOpinion,5000
MarioIzq,733
CNT_ECnoticias,1206
iglesiacatec,1274
aciprensa,5000
aciprensa,5000
aciprensa,5000
Primeroydiez,5000
packers,5000
caminantealfa,1400
elangelazul,5000
Ashley_LDU,1652
BarbieHarp,5000
1osCristianos,5000
1osCristianos,5000
DinersClubEC,5000
DinersClubEC,5000
DinersClubEC,5000
JeffMONTERO23,5000
carolinajaume,5000
MovistarEC,5000
aguschmer,5000
DiegoArcos14,5000
Mr_iEinstein,5000
CSEmelec,5000
MashiRafael,5000
EresInteligente,5000
HinchaTorero,5000
Jaimefmacias,5000
FCBarcelona_es,5000
Doctor_sarcasm0,5000
KettyVeraA,738
christinaperri,5000
TheMagicOfMessi,1740
TheSassyPandas,5000
TheSassyPandas,5000
jorgeklz,269
paulocoelho,5000
uchile,5000
AppleMusicES,5000
LaCiudadDePapel,5000
maurobustos,1068
CNNChile,5000
eluniversocom,5000
Cultura_Ec,5000
TurismoEc,5000
BuzzFeedFashion,5000
SmartPhoneEc,4983
ALL_STOCK,3279
ALL_STOCK,3279
iServicesEC,5000
iServicesEC,5000
iServicesEC,5000
raphaer,284
iServicesEC,5000
ALL_STOCK,3279
MercadoLibreEc,5000
MarceEcheverryC,224
karycordovas,828
BofA_Help,5000
BofA_Help,5000
itsAmazingGazee,58
itsAmazingGazee,58
itsAmazingGazee,58
itsAmazingGazee,58
paulocoelho,5000
paulocoelho,5000
eluniversocom,5000
itsAmazingGazee,58
itsAmazingGazee,58
NetlifeEcuador,5000
NetlifeEcuador,5000
NetlifeEcuador,5000
NetlifeEcuador,5000
NetlifeEcuador,5000
cparedesverduga,5000
ANT_ECUADOR,5000
ElPsicoanalista,5000
PaisajesGeo,5000
Ma_SoledadCG,223
StormieOmartian,5000
AndresPonce28,5000
aguschmer,5000
aguschmer,5000
aguschmer,5000
aguschmer,5000
aguschmer,5000
aguschmer,5000
CarlosGalvez21,5000
cparedesverduga,5000
dapu_newritap,155
josephlivings,34
josephlivings,34
josephlivings,34
josephlivings,34
EnContactoEc,5000
dapu_newritap,155
dapu_newritap,155
ursulastrengech,5000
RobertoBonafont,5000
HouseofRock01,5000
RobertoBonafont,5000
RobertoBonafont,5000
RobertoBonafont,5000
RobertoBonafont,5000
RobertoBonafont,5000
RobertoBonafont,5000
RobertoBonafont,5000
PhrasesMusicES,5000
SweetLoveMsg,5000
wordsporns,5000
Pontifex_es,5000
engrossingfacts,5000
Leo_eguiguren,2825
Leo_eguiguren,2825
Leo_eguiguren,2825
Leo_eguiguren,2825
Leo_eguiguren,2825
Leo_eguiguren,2825
Leo_eguiguren,2825
Leo_eguiguren,2825
Leo_eguiguren,2825
Leo_eguiguren,2825
Leo_eguiguren,2825
Leo_eguiguren,2825
Leo_eguiguren,2825
chilpemayra,10
AdmisionesESPOL,4668
chilpemayra,10
AdmisionesESPOL,4668
AdmisionesESPOL,4668
JackWilshere,5000
DiannaAgron,5000
DjOSH_KOSH,5000
BonJoffre,42
Jaacquie,14
BonJoffre,42
veraveramanolo,116
adrysamaniego,216
adrysamaniego,216
GifsDeCiencia,5000
adrysamaniego,216
GTHill,1925
ruckuswireless,5000
AlexSacoto,74
TuiteroGuayaco,5000
instaiike,591
jatirado,5000
jatirado,5000
Juezcentral,5000
NetflixLAT,5000
CynthiaViteri6,5000
flowersfromeq,268
aguschmer,5000
NewYorker,5000
reijournalist,5000
NetflixLAT,5000
BorgesJorgeL,5000
CarlosVerareal,5000
KidCudi,5000
comerperderpeso,5000
comerperderpeso,5000
PoeGalan,5000
dnavas85,5000
EquipoNARANJAco,2063
SambaAlvarado,5000
ABZEVALLOS,5000
ABZEVALLOS,5000
VLandetta,5000
VLandetta,5000
xaviercoellob,5000
GUSTAVITOMEND,19
SanchezJoselo,5000
SanchezJoselo,5000
invertirmejor,5000
invertirmejor,5000
invertirmejor,5000
layoya_1324,5000
willian2321,12
sabiastuque_,5000
TacaBielerSKC,5000
TaniaBn5,150
TaniaBn5,150
lahoraecuador,5000
TaniaBn5,150
TaniaBn5,150
TaniaBn5,150
TaniaBn5,150
35PAIS,5000
TaniaBn5,150
TaniaBn5,150
TaniaBn5,150
TaniaBn5,150
LindseyStirling,5000
lrchica,39
eluniversocom,5000
MantaFutbolClub,5000
MantaFutbolClub,5000
oz_football,4269
paultutiven,5000
JEIII9,5000
MantaFutbolClub,5000
ReinoMadridista,5000
MantaFutbolClub,5000
MashiRafael,5000
ClubFansPegaso,412
ClubFansPegaso,412
RescateAnimalEC,5000
RescateAnimalEC,5000
AluArzeno,1486
AMCTalkingDead,5000
x_snr_77,214
cparedesverduga,5000
EresInteligente,5000
PatoCornejo,5000
LAFitness,5000
GabrielaEsPais,5000
ArgentinaWarez,1
Xapime,5000
viviana_bonilla,5000
AlfaroMoreno,5000
CarlosGalvez21,5000
ecuainm,5000
mariocanessa,5000
AlfaroMoreno,5000
GonzaloLarenas,5000
MissCoLoReSs,1879
NoBombardeenUIO,409
eduarth89,11
eduarth89,11
eduarth89,11
BenedettiDice,5000
Leaving_Scars,425
CuriosoDato,5000
TheEllenShow,5000
DichosDelAbuelo,5000
RealPaulWalker,5000
lamula,5000
Expresoec,5000
ClaroEcua,5000
luancp,172
angelox2099,39
RedesUnidasEc,228
eduardomotalvo,66
MariasolhSol,58
spetnazsas,77
NovaUio,157
gloria62andrade,2143
HolcimEcuador,1900
YpsilomRSE,468
RyersonCUE,821
wef,5000
SustainBrands,5000
SustainBrands,5000
washingtonpost,5000
JCCassinelli,5000
EconCulture,5000
YpsilomRSE,468
miiikimendoza,864
valdiviagm,5000
MichelleChavero,5000
miiikimendoza,864
Pontifex_es,5000
OpiFrases,5000
MashiRafael,5000
PaulaLopezAg,793
moflologo,5000
PLinero,5000
libresdelectura,5000
HansHatch,5000
TelconetEcuador,263
ANTCEVALLOS,184
comandato,5000
YuleisiLilibeth,93
YuleisiLilibeth,93
RobertoBonafont,5000
TripleH,5000
YuleisiLilibeth,93
SoftFactoryUEES,52
waltherjoao,150
fedelaurito19,5000
Moncho_,2028
Moncho_,2028
alejandrovaras,3694
jlpesantes,202
NelsonMerizalde,1078
capitancav,98
BiessEcuador,5000
BiessEcuador,5000
manugonzalez76,2145
The90sLife,5000
MaxCRoser,5000
teamcivilespol,21
teamcivilespol,21
OdebrechtEC,591
FICT_ESPOL,181
eluniversocom,5000
Joker_fansub,276
queeres,119
RobertoBonafont,5000
RobertoBonafont,5000
jennettemccurdy,5000
MMFlint,5000
forever925,5000
fauschillo1972,40
BaironValleP,5000
PlanetaEskoria_,5000
acmilan_latino,5000
eluniversocom,5000
eluniversocom,5000
eluniversocom,5000
_DanielaIriarte,5000
CLMoralesB,5000
RadioHuancavilk,5000
ROCKCLASIC0,5000
munecamarce,5000
RobertoLinolml,36
RobertoLinolml,36
TriEcuador,5000
Hincha_Azul,5000
deportexsport,5000
deportexsport,5000
DavidFernandoC,2089
luisloaiza,909
Ilianalimon,2544
DavidFernandoC,2089
luisGmolinaC,111
DavidFernandoC,2089
DavidFernandoC,2089
guidocaro,1309
DavidFernandoC,2089
DavidFernandoC,2089
eraad,1720
eraad,1720
DavidFernandoC,2089
eluniversocom,5000
DavidFernandoC,2089
MosqueraNeira,224
AgriculturaEc,5000
YoSoyBarcelona,5000
YoSoyBarcelona,5000
YoSoyBarcelona,5000
CarlosVerareal,5000
YoSoyBarcelona,5000
CarlosVerareal,5000
LetrasIntensas,5000
jessenia_gs,369
jessenia_gs,369
jessenia_gs,369
jessenia_gs,369
jessenia_gs,369
DiceJohnGreen,5000
jessenia_gs,369
jessenia_gs,369
jessenia_gs,369
jessenia_gs,369
MashiRafael,5000
LassoGuillermo,5000
