solelozano,1344
solelozano,1344
solelozano,1344
MichelPesquera,5000
Pamelaromeroe,1235
PalabrasConAmor,5000
FraseDeSarcasmo,5000
Daniel24Lainez,277
CoupleGifs1,235
sabiastuque_,5000
sabiastuque_,5000
Gymkhana2015,252
ucasagrande,5000
Gymkhana2015,252
mercurioec,5000
AsambleaEcuador,5000
kiamotorsec,5000
DiegoBarrazuet1,1282
RadioDiblu,5000
RadioDiblu,5000
PhrasesMusicES,5000
jonathanpeb,5000
PhrasesMusicES,5000
La_Kathu,5000
ANT_ECUADOR,5000
ANT_ECUADOR,5000
ANT_ECUADOR,5000
ANT_ECUADOR,5000
ANT_ECUADOR,5000
elcomerciocom,5000
cparedesverduga,5000
Salud_Ec,5000
MinInteriorEc,5000
Salud_Ec,5000
aldiacomec,5000
RadioCiudadanaE,5000
elcomerciocom,5000
DiegoFuentesEC,1685
DiegoFuentesEC,1685
AMTQuito,5000
MinInteriorEc,5000
DiegoFuentesEC,1685
MinInteriorEc,5000
elcomerciocom,5000
ANT_ECUADOR,5000
Ambiente_Ec,5000
PrometeoEc,5000
UDLAQuito,5000
jaimelopeznovil,1000
sandynaranjo,5000
TurismoEc,5000
TravelLeisure,5000
TravelLeisure,5000
eltiempocuenca,5000
TelegraphTravel,5000
laura_celex,77
Reina_kellyq,409
laura_celex,77
LOHANTHONY,5000
MicrosoftEC,1870
lifeaseva,5000
KendallJenner,5000
quehacer_Hoy,5000
tefi_z,116
laura_celex,77
laura_celex,77
AdmisionesESPOL,4656
ceproem_espol,2796
esteticaysalud,5000
emelecbombill0,53
LetrasCiegas,5000
SlideShare,5000
elandroidelibre,5000
DomenicaMena,5000
ProAndroid,5000
progadgetYT,5000
MarcoBarrientos,5000
jordan_farro,109
MachalaNoticias,5000
LorenaBravoR,3214
Todaunaamalgama,5000
Seguridad_Ec,5000
elcomerciocom,5000
noticiasecuador,5000
Seguridad_Ec,5000
RobertSiguenza2,152
Todaunaamalgama,5000
ECU911Machala1,5000
Pontifex_es,5000
Pontifex_es,5000
MichelPesquera,5000
MichelPesquera,5000
miabuelasabia,5000
EresChiste,5000
Mitologic0,5000
NotasDirectas,5000
LaAccionDice,5000
EsAlgoDeNovios,5000
eluniversocom,5000
consuemary,2019
MinInteriorEc,5000
alejandra4798,168
mmendozav,1047
cparedesverduga,5000
larryalvarezb,231
erebolle16,394
MashiRafael,5000
MashiRafael,5000
MashiRafael,5000
Dantelo70,2128
Dantelo70,2128
GADMNaranjal,527
apguayas,5000
MinInteriorEc,5000
MinInteriorEc,5000
lucia_luciamar,307
lucia_luciamar,307
lucia_luciamar,307
lucia_luciamar,307
CBSNews,5000
TheEconomist,5000
TheEconomist,5000
noticiasecuador,5000
FoxNews,5000
axelpnl,0
DopeArtz,5000
cesarmillan,5000
LeandroTaub,5000
wobitv,5000
lourdesaranda,5000
ZachGalifinak,5000
pablokrantz,5000
pablokrantz,5000
artefeed,4684
pablokrantz,5000
BuenVivir_EC,5000
aleshammah,5000
layfon3,534
layfon3,534
Oskarsao16,142
layfon3,534
layfon3,534
layfon3,534
layfon3,534
layfon3,534
layfon3,534
OsDre_Alvarez,111
OsDre_Alvarez,111
OsDre_Alvarez,111
OsDre_Alvarez,111
viviana_bonilla,5000
viviana_bonilla,5000
viviana_bonilla,5000
PhrasesMusicES,5000
CrisNarva7,70
lindsaayloy,645
lindsaayloy,645
bluehelluin,993
Presidencia_Ec,5000
ecuainm,5000
ecuainm,5000
elespectador,5000
DefensoresRC,5000
ecuainm,5000
SenseiMendoza,73
mauroandinor,5000
revistavistazo,5000
journeywonders,5000
FNDCol,5000
asondesalsa,3575
KikoPercusion,1457
revista_dc,5000
RevistaArcadia,5000
MiOpinionPuebla,5000
menudosalsa,999
LSEpoliticsblog,5000
Caro_QuirogaG,310
eldopio,272
jpjaramillo25,494
jpjaramillo25,494
jpjaramillo25,494
jpjaramillo25,494
24HorasTVN,5000
jpasqueltv,466
UniOfSurrey,5000
MashiRafael,5000
MashiRafael,5000
MashiRafael,5000
Expresoec,5000
MovistarEC,5000
MovistarEC,5000
MovistarEC,5000
PythonRR,4922
cparedesverduga,5000
elnuevoherald,5000
morabril1,759
CarlosVerareal,5000
35PAIS,5000
la_rait,36
Ketzali,975
CompromisoEc,448
LassoGuillermo,5000
MuchachDMierda,285
yikoarrobo1988,598
bsclucho,177
AmigosBrutales,5000
EresInteligente,5000
CongresoCIESPAL,432
dolivam,530
vargasllosa,5000
vargasllosa,5000
vicoconline,5000
vicoconline,5000
vicoconline,5000
vicoconline,5000
vicoconline,5000
vicoconline,5000
MensHealthMag,5000
eluniversocom,5000
MashiRafael,5000
elcomerciocom,5000
FbParaCristo,5000
Movistar_pymes,5000
RobertoBonafont,5000
eluniversocom,5000
radiocityec,5000
3enraya_i99,1514
3enraya_i99,1514
eluniversocom,5000
plinioloor,29
ChristianMacia,28
HistCotidianas,5000
McDonalds_Ecu,5000
FrasesJakeYFinn,5000
FrasesJakeYFinn,5000
MuyAdorables,5000
PHD_OE,5000
Pontifex_es,5000
ChangeorgAR,5000
martaromerob,69
radiocityec,5000
MashiRafael,5000
MashiRafael,5000
gabo_8502,634
SanchezSonnia,31
SanchezSonnia,31
esantos1957,4469
esantos1957,4469
esantos1957,4469
esantos1957,4469
esantos1957,4469
esantos1957,4469
esantos1957,4469
esantos1957,4469
lndirecto,5000
PhrasesMusicES,5000
designmilk,5000
CulturaColectiv,5000
PhrasesMusicES,5000
uga_club,74
uga_club,74
uga_club,74
PhrasesMusicES,5000
elcomerciocom,5000
elcomerciocom,5000
laura_pincayf,463
laura_pincayf,463
MauroRojas,471
laura_pincayf,463
07Helentin,5
sp_tito,51
laura_pincayf,463
MauroRojas,471
MauroRojas,471
Pepetoala,5000
Pepetoala,5000
Pepetoala,5000
srtalauraec,5000
Emersonmorocho,5000
MashiRafael,5000
MashiRafael,5000
MashiRafael,5000
MashiRafael,5000
MashiRafael,5000
MashiRafael,5000
MashiRafael,5000
Pepetoala,5000
Pepetoala,5000
Pepetoala,5000
MashiRafael,5000
MashiRafael,5000
NickyJamPR,5000
michaeljackson,5000
TheCarlosPena,5000
dfmera,129
KathyMo2412,437
noticiasecuador,5000
catherineolmedo,401
MashiRafael,5000
rabascallcarlos,5000
BcoBolivariano,5000
manugonzalez76,2124
AparicioCC,5000
jaimenebotsaadi,5000
jaimenebotsaadi,5000
AntoArroyo,194
AntoArroyo,194
AntoArroyo,194
AntoArroyo,194
edujimenez7,23
jlozada82,748
AntoArroyo,194
AntoArroyo,194
AntoArroyo,194
AntoArroyo,194
AntoArroyo,194
AntoArroyo,194
AntoArroyo,194
DiosDelChiste,735
AntoArroyo,194
aguschmer,5000
GermanGarmendia,5000
HotChicksAIlDay,2285
EA_Espana,5000
syntekoficial,5000
pametroya,5000
hillaryresort,5000
sugeyhajjar,1334
sugeyhajjar,1334
sugeyhajjar,1334
revistavistazo,5000
amcevallos,4380
PedritoExtranja,5000
MovistarEC,5000
eluniversocom,5000
eluniversocom,5000
cnegobec,5000
TurismoEc,5000
TurismoEc,5000
sandynaranjo,5000
MinturZonal5,4757
sandynaranjo,5000
TurismoEc,5000
eluniversocom,5000
TurismoEc,5000
TurismoEc,5000
Securityartwork,5000
TecnoActualidad,1611
CSOspain,4650
guidocaro,1303
FraseDeSarcasmo,5000
FraseDeSarcasmo,5000
SoloDigamos,5000
FraseDeSarcasmo,5000
EsLibroDeFrases,5000
antoniostark93,142
FraseDeSarcasmo,5000
EsLibroDeFrases,5000
FraseDeSarcasmo,5000
EsLibroDeFrases,5000
EresInteligente,5000
revistavistazo,5000
bbcmundo,5000
RobertoBonafont,5000
CJPampliega,5000
ARRAPM,2078
cafedejoe,1452
mercurioec,5000
Juezcentral,5000
gracielasun,53
verge,5000
RobertoBonafont,5000
CLMoralesB,5000
ramiroaguilart,5000
andruchys,5000
gabymoreano,5000
cparedesverduga,5000
andruchys,5000
eduardodeamaya,540
MashiRafael,5000
andruchys,5000
GersonIMC,2483
Presidencia_Ec,5000
GuillaumeLong,5000
SocietyOfficiel,5000
NewsPAIS,147
Cultura_Ec,5000
pakwx,346
pakwx,346
pakwx,346
ECU911_,5000
GuillaumeLong,5000
GuillaumeLong,5000
MashiRafael,5000
multipolarfans,3020
carlosnahonGYE,5000
yelyahwilliams,5000
FedericoBlackB,4930
carlosnahonGYE,5000
carlosnahonGYE,5000
carlosnahonGYE,5000
CarrerasEcuador,5000
AdrianArtois,177
carlosnahonGYE,5000
salatihel,913
HarryMeeme,5000
Eduardoharop,140
HarryMeeme,5000
Beto_Torres_C,274
DiarioExtraEc,5000
Don_Muchin,5000
TheChipi,3858
Emelec_Fotos,95
mavz91,116
laura_pincayf,462
MiziaMancero,4
laura_pincayf,462
Cultura_Ec,5000
Cultura_Ec,5000
Cultura_Ec,5000
AngeloLopezR,5000
aquileslocococd,82
AngeloLopezR,5000
LuigiMB,5000
AngeloLopezR,5000
RoyerGuerrero,42
RoyerGuerrero,42
RoyerGuerrero,42
RoyerGuerrero,42
RoyerGuerrero,42
RoyerGuerrero,42
RoyerGuerrero,42
AngeloLopezR,5000
Andreilla0511,51
jorgealavaguti,44
Estefibc16,299
eisserin,339
EcuadorIronman,1618
marathonsports_,5000
RobertoBonafont,5000
eisserin,339
aguschmer,5000
Lolotronix,2469
MashiRafael,5000
CSEmelec,5000
noe_encalada,1051
karlissluna,174
IsabelNoboaP,5000
CanalRTU,5000
raymarq,2690
gonzalo__crespo,95
gonzalo__crespo,95
lucasllach,5000
lucasllach,5000
JovenesConLusto,4734
Diana_Amores,5000
MashiRafael,5000
FilmusDaniel,5000
MashiRafael,5000
NatalioRuizCqP,2299
rayovirtual,5000
CodigoFutbol,5000
RadioDiblu,5000
majofloresm,5000
MichelPesquera,5000
ParqueSamanes,5000
amoresotracosa,2145
Arrobadora,5000
Arrobadora,5000
Arrobadora,5000
Arrobadora,5000
Arrobadora,5000
HolaSoyUnMito,5000
MichelPesquera,5000
AgriculturaEc,5000
GabrielaEsPais,5000
MinInteriorEc,5000
ViviendaEc,5000
JorgeGlas,5000
MinInteriorEc,5000
MashiRafael,5000
MinInteriorEc,5000
marthi_hidalgo,184
RojadelSur,398
arborcollective,5000
pitsofficial,1080
pitsofficial,1080
yonosoycarmen,5000
BorgesJorgeL,5000
LizandraNia,403
yajayravaldivie,148
paulocoelho,5000
daniieladuquer,3681
AlixOcampo,665
JorgeVelezVelez,3134
JorgeVelezVelez,3134
JorgeVelezVelez,3134
JorgeVelezVelez,3134
SofiaCaiche,5000
calle7tc,5000
NICKIMINAJ,5000
ScarlettMR5,31
ScarlettMR5,31
NICKIMINAJ,5000
NickiMNewspaper,5000
Dome_Bustamante,4755
FABIAN0696,81
NickiMNewspaper,5000
pablocun,422
pablocun,422
unmediquillo,5000
maklovy,827
El_Padrinator,5000
OrlyOvalle,126
PsicoanalisisF,5000
RobertoBonafont,5000
CNT_Soporte,1616
Primerplanonews,5000
Riber_Juniors,5000
iExpIorer,5000
manugonzalez76,2124
CodigoFutbol,5000
Viki,5000
Viki,5000
Viki,5000
Viki,5000
Viki,5000
Viki,5000
Himsenkangin,5000
Himsenkangin,5000
siwon407,5000
siwon407,5000
Himsenkangin,5000
ActorLeeMinHo,5000
siwon407,5000
DaniellaSGB,460
moremoyamo,376
SavageComedy,5000
dayana_angulo,8
Guerrilla4Feb,5000
mcolozza,5000
mcolozza,5000
yaritzalopez121,114
lkevin_69,354
lkevin_69,354
lkevin_69,354
JCamilord,143
melissacc_,286
MarianellaHaro,129
UnaNoviaCabrona,5000
mercedes8945,598
MarianellaHaro,129
MarianellaHaro,129
FrasesMarleyEs,5000
PepitadeZ,5000
CNEL_EP,5000
TheEconomist,5000
EconAmericas,5000
WickedPizzaEC,445
MashiRafael,5000
MashiRafael,5000
MashiRafael,5000
MashiRafael,5000
ATMGuayaquil,5000
ATMGuayaquil,5000
ATMGuayaquil,5000
ATMGuayaquil,5000
MashiRafael,5000
eluniversocom,5000
Jos3Cepeda,37
elcomerciocom,5000
ProtestaGye,1721
TeresaArboleda,5000
aguschmer,5000
PedritoExtranja,5000
csilvag2006,586
GonzaloAbuelo,1823
S_raebs_B,19
CarlosVerareal,5000
ceproem_espol,2799
DiscoverMag,5000
NASANewHorizons,5000
DiscoverMag,5000
mlarco23,898
BrahianBa,5000
tononoboa,5000
SignoriGabriel,3417
tononoboa,5000
andruchys,5000
tononoboa,5000
saucedo_pablo,5000
saucedo_pablo,5000
tononoboa,5000
RomeoSantosPage,5000
acm1pt1612,129
acm1pt1612,129
XimenitaHgo,273
acm1pt1612,129
acm1pt1612,129
acm1pt1612,129
acm1pt1612,129
KusiJaime,143
KusiJaime,143
justinbieber,5000
ando_quesoo,335
MashiRafael,5000
GuillaumeLong,5000
MashiRafael,5000
MashiRafael,5000
jamlui,301
DanielBravoB,512
jamlui,301
maus_s,858
CNT_ECnoticias,1206
CNT_Soporte,1616
digitalcerebro,5000
comunidadfinan,5000
digitalcerebro,5000
comunidadfinan,5000
Internautas21,5000
eluniversocom,5000
cymejia1980,125
lahoraecuador,5000
Salud_Ec,5000
MashiRafael,5000
MashiRafael,5000
ARCSA_CZ5,82
ARCSA_CZ5,82
DraCBerrones,24
DraCBerrones,24
wendyromeroi,184
DraCBerrones,24
14Millones,3580
ARCSA_CZ8,122
elonmusk,5000
GTAthletics,5000
eluniversocom,5000
iospa_guayaquil,2304
NoticiasRCN,5000
HablaEcuador_Ec,2949
emelec,5000
Salud_Ec,5000
ChimborazoHabla,3225
HablaOrellana,2037
ElCiudadano_ec,5000
ElCiudadano_ec,5000
ElCiudadano_ec,5000
INSPI_ECUADOR,5000
PrefecturGuayas,5000
ElCiudadano_ec,5000
ElCiudadano_ec,5000
ElCiudadano_ec,5000
ElCiudadano_ec,5000
ElCiudadano_ec,5000
teleSURtv,5000
nelsonsalgadog,925
PedroUlloa29,214
MichelPesquera,5000
Gmilys,31
Gmilys,31
Gmilys,31
Gmilys,31
Gmilys,31
Gmilys,31
Gmilys,31
Gmilys,31
dhecompu,4609
LaAccionDice,5000
MELISSACELSIC,5000
DiegoArcos14,5000
LaAccionDice,5000
EresInteligente,5000
karlatroya1,26
LaAccionDice,5000
LaAccionDice,5000
LaAccionDice,5000
giancalada,269
RobertoBonafont,5000
GustavoCardosoM,2157
CeciliaParedesV,12
EsMundoAnimal,5000
vicentinobsc,73
vicentinobsc,73
vicentinobsc,73
vicentinobsc,73
vicentinobsc,73
vicentinobsc,73
vicentinobsc,73
vicentinobsc,73
NARICESECUADOR,3384
zumba_daniel,48
Alias_Lulu,112
RAPHAELartista,5000
GZuritaESPOL,3279
Samarita993,543
El_Padrinator,5000
juanmarcosX,4310
jorgeluisvas,530
El_Padrinator,5000
El_Padrinator,5000
Seguridad_Ec,5000
rianmudi1612,24
elcomerciocom,5000
Seguridad_Ec,5000
noticiasecuador,5000
elnoticierotc,5000
Hincha_Amarillo,5000
MashiRafael,5000
GuillaumeLong,5000
MashiRafael,5000
realDonaldTrump,5000
realDonaldTrump,5000
35PAIS,5000
teleSURtv,5000
35PAIS,5000
juankacastillog,3657
GuillaumeLong,5000
JorgeGlas,5000
MashiRafael,5000
Yoliypf,2078
eluniversocom,5000
eluniversocom,5000
eluniversocom,5000
quehacer_Hoy,5000
FCBarcelona,5000
eluniversocom,5000
MashiRafael,5000
MashiRafael,5000
FCSHEspol,2986
Seguridad_Ec,5000
Seguridad_Ec,5000
JorgeGlas,5000
Vice_Ec,5000
PhrasesMusicES,5000
CNEL_EP,5000
eluniversocom,5000
MauricioRodasEC,5000
somospucesd,252
somospucesd,252
mhonividente,5000
Mechi_lulu,40
mhonividente,5000
fmolestina,5000
aguschmer,5000
abdalabucaram,5000
gabyespino,5000
elnoticierotc,5000
VFWLeaders,9
FoxNews,5000
MinInteriorEc,5000
UNQuito,5000
ECU911Ambato,5000
ECU911Ambato,5000
ECU911Ambato,5000
ECU911Ambato,5000
elespectador,5000
Army_Date,5000
ConfianzaEC,604
elespectador,5000
aseplas,370
FCEB_Ecuador,734
FABIOLABERMEO1,94
wendyescobar13,696
wendyescobar13,696
lolygaiborb,333
wendyescobar13,696
monxita8,25
Cruzito16,244
FCEB_Ecuador,734
A___ES,39
andrewjefo,109
Expresoec,5000
veroskyblue,42
veroskyblue,42
eluniversocom,5000
veroskyblue,42
veroskyblue,42
veroskyblue,42
veroskyblue,42
veroskyblue,42
ClaroEcua,5000
veroskyblue,42
veroskyblue,42
veroskyblue,42
NicolePazP,313
Melissahinosc,184
NicolePazP,313
yeltcas,477
fuentesoft,209
fuentesoft,209
ximenatoro17,221
35PAIS,5000
MashiRafael,5000
TranSeguroANT,5000
TranSeguroANT,5000
TranSeguroANT,5000
ANT_ECUADOR,5000
ANT_ECUADOR,5000
mikeshinoda,5000
mikeshinoda,5000
MusicForRelief,5000
linkinpark,5000
MusicForRelief,5000
SKEETV,5000
CSEmelec,5000
CSEmelec,5000
linkinpark,5000
mikeshinoda,5000
totalgymapp,5000
DIRECTVSports,5000
romiicuvi,562
romiicuvi,562
romiicuvi,562
romiicuvi,562
GingerSares,578
hombresgnet,5000
TVORadio,5000
MotivosdOracion,5000
REFLEXI0NES,5000
Peter_Romero07,1297
anto_v25,5000
marijane_u,42
marijane_u,42
muyinteresante,5000
FishuLee,857
telesurenglish,5000
tononoboa,5000
BarcelonaSCweb,5000
BarcelonaSCweb,5000
DepressedDarth,5000
DepressedDarth,5000
LulyMacias1,27
Pepetoala,5000
ChinaRuiz5,5000
Silviafabara,5000
ChinaRuiz5,5000
ChinaRuiz5,5000
ChinaRuiz5,5000
ChinaRuiz5,5000
Denise_Bourne,373
jimmyjairala,5000
RadioRomanceFM,5000
jimmyjairala,5000
paulocoelho,5000
paulocoelho,5000
Otog1635,133
Otog1635,133
Otog1635,133
Otog1635,133
JuanSeb9976,726
Carly4Rose,5000
placblau,361
MashiRafael,5000
MashiRafael,5000
seps_ec,3575
MashiRafael,5000
MashiRafael,5000
MashiRafael,5000
MashiRafael,5000
seps_ec,3575
seps_ec,3575
forever925,5000
forever925,5000
osimonc,2843
forever925,5000
forever925,5000
forever925,5000
forever925,5000
forever925,5000
forever925,5000
forever925,5000
AndresCarrion2,5000
AndresCarrion2,5000
forever925,5000
forever925,5000
wedelgado,304
forever925,5000
forever925,5000
forever925,5000
FOXSports_sur,5000
vamosazules,5000
DiegoArcos14,5000
CSEmelec,5000
CSEmelec,5000
emelec,5000
LaReimers,5000
cparedesverduga,5000
cparedesverduga,5000
FraseConAmor,5000
DarlingMayte,562
RobertoBonafont,5000
DibujosES,5000
AmorProhibid0,5000
eluniversocom,5000
eluniversocom,5000
Riesgos_Ec,5000
Omarsin_Eliseo,229
Ambiente_Ec,5000
Pontifex_es,5000
Pontifex_es,5000
businessinsider,5000
miabuelasabia,5000
AnAttitudeBiz,5000
47a42068264a4e8,2
Clm3nt,38
D10SLeo_MESSI,2608
teleSURtv,5000
teleSURtv,5000
Expresoec,5000
Expresoec,5000
kerllyjacome,25
lnsaneTweets,5000
disneywords,5000
TheFunnyFml,5000
AdorableWords,5000
Situ_Memiras,532
ShawnMendes,5000
ShawnMendes,5000
ShawnMendes,5000
Louis_Tomlinson,5000
AaronCarpenter,5000
ohlordhes,5000
ohlordhes,5000
TerapiasKi,1107
LourdesTiban,5000
dayumaEc,3126
Hincha_Amarillo,5000
LuchoNoboaYcaza,5000
BarcelonaSCweb,5000
BarcelonaSCweb,5000
BrahianBa,5000
BarcelonaSCweb,5000
eluniversocom,5000
PhrasesDisneyES,5000
AmorProhibid0,5000
DeivisTello,530
chelovin,180
10Tobar,110
RobertoBonafont,5000
RobertoBonafont,5000
marathonsports_,5000
RobertoBonafont,5000
RobertoBonafont,5000
RobertoBonafont,5000
RobertoBonafont,5000
RobertoBonafont,5000
RobertoBonafont,5000
RobertoBonafont,5000
RobertoBonafont,5000
RobertoBonafont,5000
RobertoBonafont,5000
RobertoBonafont,5000
CocaColaLifeEc,5000
BarcelonaSCweb,5000
marisolissette,203
BarcelonaSCweb,5000
BarcelonaSCweb,5000
AlfaroMoreno,5000
AlfaroMoreno,5000
cparedesverduga,5000
cparedesverduga,5000
cparedesverduga,5000
EnContactoEc,5000
MashiRafael,5000
MashiRafael,5000
MashiRafael,5000
MashiRafael,5000
MashiRafael,5000
MashiRafael,5000
machoproducer,4712
NoticiasUTEQ,258
lisbethAzulita,406
CSEmelec,5000
NoticiasUTEQ,258
LuisUteq,8
ocevallos2,7
UISEK,5000
ChechiAlvarado,5000
ChechiAlvarado,5000
MichelPesquera,5000
HumorArq,3166
elcomerciocom,5000
bunburyoficial,5000
dearquitectos,5000
mercurioec,5000
Azuayparroquias,623
ChechiAlvarado,5000
ChechiAlvarado,5000
ChechiAlvarado,5000
AzuayPrefectura,5000
VivirEnForma,5000
AdmisionesESPOL,4669
salmaacostat,256
mariana_aran,5000
lndirecto,5000
Michi_Luna,581
alboradarock,73
fernandapadil16,552
XammBaezLennon,52
EduardoMeneses_,657
gebus84,35
gebus84,35
AntifaRommel,59
edu_6ms66,133
GenesisCaroline,47
AnaPatr06632414,11
gebus84,35
GenesisCaroline,47
CannabicoEc,640
TauronymousEC,31
ElMatinalGamaTv,5000
ElMatinalGamaTv,5000
elastixmexico,892
SlideShare,5000
Juancn_95,523
elandivar,5000
elandivar,5000
elandivar,5000
elandivar,5000
elandivar,5000
MashiRafael,5000
GermanGarmendia,5000
GermanGarmendia,5000
MashiRafael,5000
comunidadgye,5000
Expresoec,5000
calacnn,1883
Puerto_Limpio,5000
WalterPalmerDDS,245
CarlosVerareal,5000
CarlosVerareal,5000
CarlosVerareal,5000
CarlosVerareal,5000
CarlosVerareal,5000
superbancosEC,5000
superbancosEC,5000
Victor_RR9,751
Victor_RR9,751
Iviiochoa,487
Iviiochoa,487
Iviiochoa,487
Iviiochoa,487
Iviiochoa,487
BarcelonaSCweb,5000
DIRECTVSports,5000
AdmisionesESPOL,4668
BryanCranston,5000
DIRECTVSports,5000
Victor_RR9,751
MashiRafael,5000
concejalserrano,1446
DeporteEc,5000
concejalserrano,1446
MichelDoumet,5000
parischiquitoo,5000
parischiquitoo,5000
viviana_bonilla,5000
viviana_bonilla,5000
viviana_bonilla,5000
LuisMongeE,5000
viviana_bonilla,5000
PacoVelasco2014,5000
MinInteriorEc,5000
cedatos,4097
MashiRafael,5000
ElOroMAR70,615
ElCiudadano_ec,5000
35PAIS,5000
vinizeta,5000
Telecom_Ec,5000
SuperciasEC,5000
SuperciasEC,5000
PalacioEmilio,5000
ghidalgoandrade,4274
ElayneRugel,88
ElayneRugel,88
BienInformadoTC,5000
Marcela_Gandara,5000
cielosturadio,1854
RobertoBonafont,5000
DanielCalvetiPR,5000
OsmarAique,22
TVyNovelasCol,5000
MajidaIssa1,5000
MinInteriorEc,5000
ViralesPOP,5000
GabrielaZamora1,5000
bonilcaricatura,5000
RobertoBonafont,5000
RobertoBonafont,5000
ruiztattys,26
RobertoBonafont,5000
germanchelo,235
Ecu911Babahoyo,3924
Ecu911Babahoyo,3924
MalizaCarlos,33
ch_estay,5000
CarlosMonsalveA,523
35applayas,298
MashiRafael,5000
PichinchaPais,3661
MashiRafael,5000
GuillaumeLong,5000
HablaGuayas,4593
PichinchaPais,3661
revistalaotra,1007
GuillaumeLong,5000
HablaGuayas,4593
CFKArgentina,5000
PichinchaPais,3661
mashijuancarlos,4779
RadioDiblu,5000
aguschmer,5000
RadioDiblu,5000
MashiRafael,5000
RadioDiblu,5000
AdmisionesESPOL,4668
HacheCristian,16
AdmisionesESPOL,4668
AdmisionesESPOL,4668
rodolfchong,28
PresidenciaCNE,2632
PresidenciaCNE,2632
cneimbabura,2809
losfarandulerox,242
PresidenciaCNE,2632
PresidenciaCNE,2632
cnegobec,5000
PresidenciaCNE,2632
cneimbabura,2809
cneimbabura,2809
PresidenciaCNE,2632
cneimbabura,2809
anallerOana,436
EriickSalgado__,136
cuartetodenos,5000
ElCiudadano_ec,5000
AlejandroQuija,1926
MashiRafael,5000
rolandoteleSUR,5000
teleSURtv,5000
teleSURtv,5000
ComercioExtEc,5000
joserrafael,2310
MashiRoberto,5000
rolandoteleSUR,5000
noticiasecuador,5000
ErnestoNietoC,1470
elmundoes,5000
TuAdolescencia,5000
ConsejeroUnico,5000
dasiagues,249
dasiagues,249
MashiRafael,5000
turconasib,5000
dasiagues,249
AledeMata,348
turconasib,5000
Emelec_Man19,3550
turconasib,5000
Hincha_Azul,5000
CSEmelec,5000
ProfesorHumor,5000
PalabrasConAmor,5000
nathi_holic05,88
reynapecosa,5000
PhrasesDisneyES,5000
kathrynvelezg,300
emelec,5000
MinturZonal5,4759
MinturZonal5,4759
MinturZonal5,4759
ElCiudadano_ec,5000
MinturZonal5,4759
MinturZonal5,4759
MinturZonal5,4759
TurismoEc,5000
TurismoEc,5000
MinturZonal5,4759
MinturZonal5,4759
MinturZonal5,4759
MinturZonal5,4759
MashiRafael,5000
desarrollo2013,5000
MaLu_HM,264
RobertoBonafont,5000
RobertoBonafont,5000
eluniversocom,5000
JoseMontesdeoK,2402
GabyPablo,1457
sallesino,5000
alvarez_ivonne,5000
eluniversocom,5000
pabs_devil,226
pabs_devil,226
pabs_devil,226
cparedesverduga,5000
LuisSarango11,235
ECU911Machala1,5000
RadioDiblu,5000
RadioDiblu,5000
RadioDiblu,5000
DavidMorenoT,5000
andruchys,5000
SOC10S,5000
SOC10S,5000
nelson_piojo,26
MashiRafael,5000
JorgeGlas,5000
MashiRafael,5000
MashiRafael,5000
MashiRafael,5000
MashiRafael,5000
JorgeGlas,5000
MashiRafael,5000
HablaEcuador_Ec,2959
eluniversocom,5000
vitelbel78,48
JorgeGlas,5000
jimmyjairala,5000
jimmyjairala,5000
caderadeboateng,5000
RobertoFumafont,5000
miss2caras,51
juanpittau,5000
juanpittau,5000
alejandrovaras,3693
EnContactoEc,5000
elnuevoherald,5000
DiegoFuentesEC,1698
MinInteriorEc,5000
DefensaEc,5000
DefensaEc,5000
WLAdventure,952
Paopatrimonial,3033
lahoraecuador,5000
CLMoralesB,5000
sansalvador100,3213
RadioDiblu,5000
DiegoArcos14,5000
TheEconomist,5000
Hincha_Amarillo,5000
jorgeheredia85,5000
jorgeheredia85,5000
MashiRafael,5000
GaleanoEscritor,162
MashiRafael,5000
MashiRafael,5000
PastorCashLuna,5000
DANILOMONTERO_,5000
MashiRafael,5000
MarthaSandovalR,5000
henryavelino,4818
CangrejosDMamit,3267
SofiaCaiche,5000
Benitblanco,5000
MichelPesquera,5000
esdependej0s,5000
LuchoNoboaYcaza,5000
JorgeRun,552
MichelPesquera,5000
eluniversocom,5000
ProfesorHumor,5000
ProfesorHumor,5000
sabiastuque_,5000
AnitaIC2,141
AnitaIC2,141
AnitaIC2,141
AnitaIC2,141
AnitaIC2,141
Hincha_Amarillo,5000
AnitaIC2,141
AnitaIC2,141
drapolooficial,506
elnoticierotc,5000
EstebanEdxardo,470
el_mercioco,2837
RobertoBonafont,5000
GermanGarmendia,5000
kimberlytalledo,129
kimberlytalledo,129
kimberlytalledo,129
MauricioOrtegaE,940
PuertabiertaEC,532
LorenaBravoR,3251
CLMoralesB,5000
pacorevuelta,2435
iauraB,5000
majodemoreira,5000
xaviercoellob,5000
andruchys,5000
Jaimefmacias,5000
Paralelo_News,5000
andrewleechm,278
luzein,205
EmelecDice,5000
cparedesverduga,5000
FASSUD,5000
EmiOk_,5000
BrahianBa,5000
RobertoBonafont,5000
RobertoBonafont,5000
cparedesverduga,5000
RobertoBonafont,5000
BancoMundial,5000
bbcmundo,5000
mckronfle,5000
karla_caicedo,372
CynthiaViteri6,5000
medueleelpie1,1047
SoyCorredora,5000
GuerreraRunning,4518
AngelaTenorio96,427
OnarresA,5000
MichelPesquera,5000
FEcAtletismo,1856
MercadolibreGye,5000
PubliciGratisEC,5000
BaratoBueno,5000
MercadolibreGye,5000
MercadoLibreEc,5000
Lex_93,215
andresl_32,278
RobertoBonafont,5000
RobertoBonafont,5000
RobertoBonafont,5000
RobertoBonafont,5000
Franco95D,343
RobertoBonafont,5000
RobertoBonafont,5000
IvannaNavarrte,588
AvonEcuador,2257
SENAE_Aduana,5000
SENAE_Aduana,5000
TheEconomist,5000
JFRodriguezEC,767
MashiRafael,5000
SENAE_Aduana,5000
SENAE_Aduana,5000
SENAE_Aduana,5000
SENAE_Aduana,5000
DiegoArcos14,5000
MashiRafael,5000
TerraChile,5000
david_tovarg,2
david_tovarg,2
david_tovarg,2
david_tovarg,2
david_tovarg,2
david_tovarg,2
MashiRafael,5000
KevinPincay2,24
jaimenebotsaadi,5000
SRIoficialEc,1425
eluniversocom,5000
eluniversocom,5000
eluniversocom,5000
BuenosModales_,5000
eluniversocom,5000
CNEL_EP,5000
MashiRafael,5000
eluniversocom,5000
rolandopanchana,5000
rolandopanchana,5000
rolandopanchana,5000
rolandopanchana,5000
rolandopanchana,5000
rolandopanchana,5000
rolandopanchana,5000
rolandopanchana,5000
rolandopanchana,5000
rolandopanchana,5000
rolandopanchana,5000
rolandopanchana,5000
rolandopanchana,5000
rolandopanchana,5000
rolandopanchana,5000
rolandopanchana,5000
fcastilla3000,230
fcastilla3000,230
fcastilla3000,230
MovistarEC,5000
jaroficial,5000
MovistarEC,5000
EmWatson,5000
FCSHEspol,2993
JensenAckles,5000
JensenAckles,5000
JensenAckles,5000
iheidyvinueza,776
iheidyvinueza,776
DaCulkinClan,284
iheidyvinueza,776
ImportStore12,1348
MirlaCusme,38
MirlaCusme,38
MirlaCusme,38
ValaAfshar,5000
LissQP,153
Ambiente_Ec,5000
eluniversocom,5000
ChristianStep12,165
AngelesRAroca,487
OscarSchnabel,380
Giswater,535
pedritoe69,465
theAGU,5000
jimabelcs,249
jimabelcs,249
MinInteriorEc,5000
LorenaBravoR,3256
RobertoBonafont,5000
Stefanoomissale,549
adrisanchezOK,5000
De_Prati,5000
LassoGuillermo,5000
belendeplazas,348
tinocotania,5000
ElFutboleroEs,5000
elcomerciocom,5000
LetraSecreta,5000
BarcelonaSCweb,5000
EsLibroDeFrases,5000
DeCabelloRojo,5000
DeCabelloRojo,5000
amalia201044,2
randolfoplaza77,1
vivianamaya91,3098
JoyAxeljoel,13
JoyAxeljoel,13
coppianocinthya,5000
china123456281,334
PremioSacha,118
TrainingMindful,5000
alejodorowsky,5000
ElizabethCRENA,36
Fundavade,1336
70torinoman,5000
jitsumag,5000
RobertoBonafont,5000
RobertoBonafont,5000
RobertoBonafont,5000
RobertoBonafont,5000
CaravanaDeporte,5000
CaravanaDeporte,5000
clarosportsec,2229
RadioDiblu,5000
RobertoBonafont,5000
RadioDiblu,5000
RadioDiblu,5000
RobertoBonafont,5000
RobertoBonafont,5000
RobertoBonafont,5000
CarlosVictorM,5000
CaravanaDeporte,5000
CodigoFutbol,5000
CodigoFutbol,5000
CarlosVictorM,5000
Telemundosports,181
ecuavisainter,5000
lacolores1,5000
DiegoArcos14,5000
johnLaguna3,5000
ronsdelg,12
ronsdelg,12
Garayk91,36
TuentiEC,5000
MashiRafael,5000
FAlvaradoE,5000
SupercomZona8,351
Presidencia_Ec,5000
Salud_Ec,5000
tokrp,2791
RobertoBonafont,5000
HistoryLA,5000
sabiastuque_,5000
RobertoBonafont,5000
semeicastillo,674
EsMundoAnimal,5000
ConsejeroUnico,5000
sabiastuque_e,5000
FacsoFest2015,203
AFPespanol,5000
AlfredoViteri,923
AlfredoViteri,923
bouckap,5000
spcrucianelli,5000
ritajnehme,646
teleSURtv,5000
ExploraDios,5000
ExploraDios,5000
InformateQue,5000
eluniversocom,5000
elcomerciocom,5000
joswaldobc,23
joswaldobc,23
joswaldobc,23
joswaldobc,23
joswaldobc,23
joswaldobc,23
joswaldobc,23
D_Jama,2553
litumalex,2863
BIOTECH_SI,5000
bpagricolas,5000
BIOTECH_SI,5000
BIOTECH_SI,5000
BIOTECH_SI,5000
BIOTECH_SI,5000
bpagricolas,5000
CornTRRade,3995
turconasib,5000
MashiRafael,5000
Seguridad_Ec,5000
VerdesPizza,5000
ILiveEnglish,5000
ILiveEnglish,5000
ILiveEnglish,5000
ILiveEnglish,5000
VerdesPizza,5000
VerdesPizza,5000
VerdesPizza,5000
GloriaSaltosEc,5000
GloriaSaltosEc,5000
GloriaSaltosEc,5000
MichelaPinBu,5000
JoanBaldaZ,1956
apguayas,5000
PrefecturGuayas,5000
concejalserrano,1447
MarthaRosado8,118
parischiquitoo,5000
LeonAzul76,740
MashiRafael,5000
JCCassinelli,5000
parischiquitoo,5000
ElCiudadano_ec,5000
ElCiudadano_ec,5000
ElCiudadano_ec,5000
Hincha_Amarillo,5000
LuisSuarez9,5000
BarcelonaSCweb,5000
BarcelonaSCweb,5000
Hincha_Amarillo,5000
BarcelonaSCweb,5000
BarcelonaSCweb,5000
AdmisionesESPOL,4672
Hincha_Amarillo,5000
RobertoBonafont,5000
calle7tc,5000
calle7tc,5000
MashiRafael,5000
Presidencia_Ec,5000
Presidencia_Ec,5000
Presidencia_Ec,5000
Presidencia_Ec,5000
Presidencia_Ec,5000
Presidencia_Ec,5000
MashiRafael,5000
MashiRafael,5000
MashiRafael,5000
MashiRafael,5000
MashiRafael,5000
Presidencia_Ec,5000
MashiRafael,5000
MashiRafael,5000
MashiRafael,5000
Presidencia_Ec,5000
Presidencia_Ec,5000
MashiRafael,5000
MashiRafael,5000
SomosTurismoEC,5000
revistavistazo,5000
karluSChka,5000
sexualesGifs,5000
LetraMusicEs,19
julitosh_xxv,209
SamyBC9,547
SamyBC9,547
SamyBC9,547
lfbust,253
Riesgos_Ec,5000
JDelgadoOficial,4571
KtGloede,302
SDMagdalena,271
SDMagdalena,271
mnakach,84
SDMagdalena,271
SDMagdalena,271
florenciopinela,883
mgvelardet,587
florenciopinela,883
mgvelardet,587
ferduque14,394
mgvelardet,587
anirudhjay,340
cricaurt,676
JeffMONTERO23,5000
renegarcia900,5000
Carlhillos,5000
angelohaga,21
angelohaga,21
angelohaga,21
LisbethBaque,732
LisbethBaque,732
JasdImportacion,242
McDonalds_Ecu,5000
maklovy,827
DawichKattson,5000
dishevelled,792
consuemary,2032
FanAdriFonseca,17
PrettyW0mens,5000
meli_martilloa,130
meli_martilloa,130
meli_martilloa,130
meli_martilloa,130
dayanna_aa,214
RecNaturalesEc,5000
RecNaturalesEc,5000
MashiRafael,5000
figlesias1977,916
johansson540,2968
CEAR_EP,167
rolandopanchana,5000
rolandopanchana,5000
rolandopanchana,5000
hugovillacres,5000
hugovillacres,5000
hugovillacres,5000
fredy_rosillo,1111
XuLiTa5,165
donde_rigo,9
jescobarm1979,1596
BrahianBa,5000
PatoCornejo,5000
Ecuacrawfish,1127
EfrainRuales,5000
CDRiverEcuador,5000
Ecuacrawfish,1127
Ecuacrawfish,1127
RadioDiblu,5000
ProfesorHumor,5000
JuanPueblito17,1616
JuanPueblito17,1616
JuanPueblito17,1616
RadioDiblu,5000
ElFutboleroEs,5000
RadioDiblu,5000
FCBarcelona_es,5000
JufraCentroGYE,46
JufraCentroGYE,46
JufraCentroGYE,46
JufraCentroGYE,46
AmigoSecreto_ec,32
AmigoSecreto_ec,32
TalentoUnilever,5000
TalentoUnilever,5000
TalentoUnilever,5000
rogergzz,5000
luedzamb,102
Notebook,5000
marc0salcedo,211
marc0salcedo,211
sabiastuque_,5000
ChiIIVlbes,5000
christianecm85,1439
IESSGuayas,731
IESSGuayas,731
IESSGuayas,731
IESSGuayas,731
IESSGuayas,731
IESSGuayas,731
UdeGuayaquil,3416
UdeGuayaquil,3416
UdeGuayaquil,3416
UdeGuayaquil,3416
UdeGuayaquil,3416
UdeGuayaquil,3416
BabyAnimalGifs,5000
OrdureBizarre_,5000
yisvcrist,5000
yisvcrist,5000
techreview,5000
ivannazau,4840
sanityinc,1430
ssalvatierra,1453
astro_reid,5000
newsyc20,5000
SAI,5000
Don_Silvin,1448
kennethn,5000
dalepartridge,5000
realDonaldTrump,5000
Chazz13dosed,973
Expresoec,5000
nayirarocioyebe,554
laborwhisperer,777
YourDoulaBag,4565
KKonradLCCE,620
AliciaBuffer,1260
MaryFetzer,212
JessicaRotter,851
mamapureblog,5000
smalltwnblkgirl,471
KKreations11,430
St3phyy13,27
ValerieAgyeman,169
cristhian_noboa,5000
djuezm,223
MashiRafael,5000
Hincha_Azul,5000
TheFactsBook,5000
Hincha_Azul,5000
FOXSports_sur,5000
TextosdePareja,5000
CarlosMonsalveA,524
Vice_Ec,5000
CarlosFiallos_,146
CarlosFiallos_,146
ecuainm,5000
bbcmundo,5000
CarlosMonsalveA,524
PrefecturGuayas,5000
PrefecturGuayas,5000
PrefecturGuayas,5000
jimmyjairala,5000
jimmyjairala,5000
jimmyjairala,5000
PrefecturGuayas,5000
PrefecturGuayas,5000
PrefecturGuayas,5000
PrefecturGuayas,5000
PrefecturGuayas,5000
PrefecturGuayas,5000
PrefecturGuayas,5000
PrefecturGuayas,5000
PrefecturGuayas,5000
PrefecturGuayas,5000
PrefecturGuayas,5000
Kia,5000
BingRewards,5000
JorgeParedes_91,46
yehudaberg,5000
LetrasReales,5000
RobertoBonafont,5000
RobertoBonafont,5000
JessicaCapshaw,5000
FraseDeSarcasmo,5000
FraseDeSarcasmo,5000
FraseDeSarcasmo,5000
eve_villacreses,199
eve_villacreses,199
eve_villacreses,199
eve_villacreses,199
eve_villacreses,199
REspinosa_G,4667
REspinosa_G,4667
CarlosVerareal,5000
BLNCompetencia,5000
ivannazau,4842
coberdigital,5000
teleSURtv,5000
elcomercio,5000
lanacioncom,5000
Prensa_Emelec,5000
revistavistazo,5000
elnoticierotc,5000
eluniversocom,5000
elnoticierotc,5000
lanacioncom,5000
TurismoEc,5000
ConfiesaESPOL,210
JohnTown_,5000
elespectador,5000
RobertoBonafont,5000
NTN24ve,5000
NTN24ve,5000
NTN24ve,5000
Jimmy_CG29JK,2
comunidadgye,5000
CYeseneaMendoza,4327
bibliainlinea,5000
BancoGuayaquil,5000
BancoGuayaquil,5000
ursulastrengech,5000
samanthagreyb,5000
BancoGuayaquil,5000
BancoGuayaquil,5000
aguschmer,5000
MayBayas,5000
FAlbericio,1173
YachayTech,5000
YachayTech,5000
RobertoFumafont,5000
yolucho,5000
DiegoArcos14,5000
CarlosVictorM,5000
UnEroticoPoeta,5000
NotasDirectas,5000
curioso_soy,5000
sabiastuque_,5000
rafaelaagarzon,924
NotasDirectas,5000
ElianaCaballito,656
Expresoec,5000
elcomerciocom,5000
Expresoec,5000
NissanLATAM,5000
Expresoec,5000
eluniversocom,5000
elcomerciocom,5000
elcomerciocom,5000
BancoCentral_Ec,5000
eluniversocom,5000
AlbertoAcostaE,5000
Expresoec,5000
NatGeo,5000
eluniversocom,5000
eluniversocom,5000
BomberosQuito,5000
lftorrest,5000
RobertoBonafont,5000
RobertoBonafont,5000
RadioDiblu,5000
coello_luciana,256
cmedinaec,1157
PeterGranja,244
GuidoAlexJalil,4230
EnSilvio,461
eluniversocom,5000
CarlosVerareal,5000
SirGlod,635
eluniversocom,5000
PeterGranja,244
juanvizuetaronq,5000
KiaraBaquerizo,412
lndirecto,5000
j_lauro_morco,5000
ErickFernandoQ,5000
REFLEXI0NES,5000
EresPensamiento,5000
DichosDelAbuelo,5000
RobertoBonafont,5000
lillygoodman,5000
gisella_bayona,5000
AlfaroMoreno,5000
Hincha_Amarillo,5000
superk800radio,5000
Hincha_Amarillo,5000
LuchoNoboaYcaza,5000
Hincha_Amarillo,5000
Hincha_Amarillo,5000
SiempreBitches,5000
iMoviePhrases,5000
cansionesfrases,5000
JuanBurton_,5000
maire_wink,5000
ConfiesaESPOL,210
ConfiesaESPOL,210
radioalfaec,5000
DavidReinoso,5000
FCPorto,5000
JorgeIsaac123,91
JorgeIsaac123,91
SanchezJoselo,5000
sergio_flores,4756
DavidMorenoT,5000
hdf_tvs,9
hdf_tvs,9
PulpoAbraham,1798
TheBeatIes,5000
TheWhoTour,5000
BelowSomeone,14
TheWhoTour,5000
WhoLatinamerica,1376
NotasAnimales,5000
Frases_App,5000
MichelPesquera,5000
MichelPesquera,5000
MichelPesquera,5000
MichelPesquera,5000
LetraUnica,5000
JerryDanielsen,5000
LVLUPEXPO,5000
DarkskinBaes,5000
RadioPuntoRojo,5000
LuigiMB,5000
frasesmarketing,5000
micariamanga,687
G_Pisarello,5000
35PAIS,5000
MashiRafael,5000
MashiRafael,5000
MashiRafael,5000
MashiRafael,5000
MashiRafael,5000
RafaSaltos,790
DefensoresRC,5000
MashiRafael,5000
FernandoSabando,206
gisella_bayona,5000
vtorressuarez,197
tinocotania,5000
CarlosVictorM,5000
DeporteEc,5000
CarlosVictorM,5000
SambaAlvarado,5000
CodigoFutbol,5000
MariaIsabeliita,783
DeporteEc,5000
CiudadYachay,5000
AndresGomezGogo,5000
sucomentario,5000
PvgVera,173
jazminmailen1,12
molimontoya,268
RobertoBonafont,5000
RobertoBonafont,5000
RobertoBonafont,5000
RobertoBonafont,5000
AlfaroMoreno,5000
Osseszencovich,2935
FraseDeSarcasmo,5000
Pattycopal,324
ComercioExtEc,5000
SupercomZona8,355
HuffingtonPost,5000
NYMag,5000
MakingOfs,5000
MakingOfs,5000
MakingOfs,5000
cala,5000
Lanataenel13,5000
paolagranizoriq,94
Martinminguchi,5000
tonyszhou,5000
tinocotania,5000
scottderrickson,5000
ernesturtasun,5000
NYMag,5000
JamesPMorrison,5000
Colombiamodelos,5000
Colombiamodelos,5000
olvihormigos,5000
ghoficial,5000
ghoficial,5000
RobertoBonafont,5000
ristomejide,5000
ghoficial,5000
ghoficial,5000
Ivan_Alerys,153
Angela_Bermeo,177
Angela_Bermeo,177
Angela_Bermeo,177
joalmacias,144
eluniversocom,5000
elcomerciocom,5000
eluniversocom,5000
RobertoBonafont,5000
JohnLegere,5000
adrianap199700,443
ElPrincipeDice,5000
cpquito,12
JorgeAndresDP,529
AlexanderRM21,702
negro_fac,233
luisevivanco,5000
Tattos_addict,5000
fabchang,1053
wef,5000
WAKEUPPEOPL3,5000
AllEXPENSlVE,5000
SadHappyAmazing,5000
muyinteresante,5000
JohnTown_,5000
usopen,5000
kennethcarrera,1275
CarlosVerareal,5000
eluniversocom,5000
84Peterh,39
SadHappyAmazing,5000
calle7tc,5000
BarcelonaSCweb,5000
MichelPesquera,5000
VirgenViolador,4291
sflorenc,208
eluniversocom,5000
TuiteroGuayaco,5000
eluniversocom,5000
sflorenc,208
PedritoExtranja,5000
IMarceloLarrea,1239
CamposAlex,5000
BarcelonaSCweb,5000
adrisanchezOK,5000
TribunaSpider,5000
EresPensamiento,5000
kevin_hg17,321
MashiRafael,5000
Presidencia_Ec,5000
Presidencia_Ec,5000
arduinoCNN,5000
MashiRafael,5000
TheMrXOfficial,5000
TheMrXOfficial,5000
TheMrXOfficial,5000
radioalfaec,5000
radioalfaec,5000
radioalfaec,5000
radioalfaec,5000
Hincha_Amarillo,5000
radioalfaec,5000
radioalfaec,5000
radioalfaec,5000
radioalfaec,5000
radioalfaec,5000
radioalfaec,5000
radioalfaec,5000
radioalfaec,5000
radioalfaec,5000
AdmisionesESPOL,4688
Hincha_Azul,5000
emelec,5000
CSEmelec,5000
Odontofreshecu,333
Odontofreshecu,333
ciberosv,444
MashiRafael,5000
kaluramirez,402
byronvillacis,5000
wroxettero,83
miabuelasabia,5000
EresChiste,5000
wroxettero,83
miabuelasabia,5000
EresPensamiento,5000
dijomarley,3
MafaldaQuotes,5000
SNAME_SSEcuador,53
SNAME_SSEcuador,53
SNAME_SSEcuador,53
ChristianTG6,239
ChristianTG6,239
cubalondra,1658
SlideShare,5000
WilliamArcos,107
WilliamArcos,107
eluniversocom,5000
eluniversocom,5000
Martinminguchi,5000
elmundoes,5000
diegosalgadorib,3048
Soy_Donante,1196
julioverdugap,99
rcnlaradio,5000
krencepeda,232
krencepeda,232
esinstagram,8
tugimnasioES,5000
BBCBreaking,5000
WSJ,5000
jaimenebotsaadi,5000
CanalRTU,5000
lahoraecuador,5000
ecuainm,5000
yolaimb,7
yolaimb,7
abdalabucaram,5000
tinocotania,5000
MauricioRodasEC,5000
Pontifex_es,5000
MovistarEC,5000
CanalRTU,5000
eluniversocom,5000
elcomerciocom,5000
elcomerciocom,5000
MafaldaQuotes,5000
grevemac23,197
Mitologic0,5000
USANAColombia,4162
paulocoelho,5000
paulocoelho,5000
TWICHISTE,5000
UnCuriosoDice,5000
paulocoelho,5000
paulocoelho,5000
su_vivienda,982
Fulania,5000
accesshollywood,5000
smoda,5000
richardmalave,32
ssalvatierra,1454
PalacioEmilio,5000
PalacioEmilio,5000
BarcelonaSCweb,5000
guilletacle,531
CalidadEspol,86
tononoboa,5000
BarcelonaSCweb,5000
EcuavisaInforma,5000
PalacioEmilio,5000
EcuavisaInforma,5000
jaimenebotsaadi,5000
PalacioEmilio,5000
BarcelonaSCweb,5000
RATABLANCAOFFIC,5000
veronicaineszag,20
hurricanenita,5000
RATABLANCAOFFIC,5000
moschendanilo,2221
RATABLANCAOFFIC,5000
GabrielMarian,904
FrancesPossieri,5000
GabrielMarian,904
GabrielMarian,904
EstebanEdxardo,472
CynthiaViteri6,5000
EstebanEdxardo,472
HansHatch,5000
archiecu,239
Pijamasurf,5000
juanfervelasco,5000
MaiteOficial,5000
EnContactoEc,5000
EnContactoEc,5000
neymarjr,5000
AmorProhibid0,5000
erickLeninC,29
erickLeninC,29
neymarjr,5000
neymarjr,5000
erickLeninC,29
erickLeninC,29
erickLeninC,29
neymarjr,5000
neymarjr,5000
erickLeninC,29
CaravanaDeporte,5000
DomeV1,236
RobertoBonafont,5000
RobertoBonafont,5000
FbParaCristo,5000
RobertoBonafont,5000
RobertoBonafont,5000
Pontifex_es,5000
RobertoBonafont,5000
RobertoBonafont,5000
RobertoBonafont,5000
FelipaoCaicedo,5000
karin_gorda,5000
JovenCurioso,6
vivianamaya91,3098
CAJADEVERDADES,5000
DonFutbol_,5000
Juezcentral,5000
Juezcentral,5000
Juezcentral,5000
Juezcentral,5000
Juezcentral,5000
Juezcentral,5000
Juezcentral,5000
el10blaugrana,5000
wi6u3,258
pcarvajal78,5000
ClaroEcua,5000
MashiRafael,5000
Salud_Ec,5000
Salud_Ec,5000
jonathanmorant1,31
radioalfaec,5000
radioalfaec,5000
radioalfaec,5000
marcomackliff,108
marcomackliff,108
marcomackliff,108
marcomackliff,108
RicardoVinuezaM,1753
luizao_26,116
luizao_26,116
luizao_26,116
pmartinasr,8
PhrasesMusicES,5000
PhrasesMusicES,5000
PhrasesMusicES,5000
lDayar,527
CodigoFutbol,5000
LissValarezo,655
LissValarezo,655
LissValarezo,655
MaloreGa_95,261
MaloreGa_95,261
LissValarezo,655
melissacc_,287
melissacc_,287
LissValarezo,655
LissValarezo,655
LissValarezo,655
LissValarezo,655
LissValarezo,655
LissValarezo,655
LissValarezo,655
LissValarezo,655
LissValarezo,655
dyanitaosita,70
TVSamarillo,5000
alexoficial,5000
showpropanama,5000
trendinaliaEC,5000
BrahianBa,5000
rod_miranda45,349
rod_miranda45,349
Palomiski,528
anaviannelly,21
ManUtd_Es,5000
2010MisterChip,5000
CSEmelec,5000
eluniversocom,5000
2010MisterChip,5000
2010MisterChip,5000
RamAbdu,5000
CNEL_EP,5000
CNEL_EP,5000
TodoSobreTennis,5000
CSEmelec,5000
BLNCompetencia,5000
BLNCompetencia,5000
FCSHEspol,3005
Presidencia_Ec,5000
CibelesAtenea,2592
Presidencia_Ec,5000
MConstruyendo,5000
claumarquezp,504
claumarquezp,504
claumarquezp,504
eluniversocom,5000
andresroche,5000
LorenaBravoR,3296
ANT_ECUADOR,5000
ANT_ECUADOR,5000
CJudicaturaEc,5000
ANT_ECUADOR,5000
LorenaBravoR,3296
LorenaBravoR,3296
GuayasCJ,1712
ANT_ECUADOR,5000
LorenaBravoR,3296
ANT_ECUADOR,5000
PedritoExtranja,5000
AlfaroMoreno,5000
MashiRafael,5000
msdev,5000
relicheandres,3755
jpmoralesviteri,1015
jpmoralesviteri,1015
ronaldshagrath,181
BomberosGYE,5000
CGherb,999
DepressedDarth,5000
aciprensa,5000
CSEmelec,5000
CSEmelec,5000
CSEmelec,5000
CSEmelec,5000
CSEmelec,5000
ElMiticoCapwell,5000
CSEmelec,5000
matrimonioreal,5000
MinutoCeroEC,5000
MinutoCeroEC,5000
MinutoCeroEC,5000
MinutoCeroEC,5000
MinutoCeroEC,5000
MinutoCeroEC,5000
MinutoCeroEC,5000
MarioDaniiel,483
MinutoCeroEC,5000
Majito_AG,330
MashiRafael,5000
_stefanyecochea,406
BeelineGames,5000
BeelineGames,5000
BeelineGames,5000
BeelineGames,5000
BeelineGames,5000
BeelineGames,5000
BeelineGames,5000
BeelineGames,5000
sabiastuque_,5000
sabiastuque_,5000
El_Universal_Mx,5000
DepressedDarth,5000
UDLAQuito,5000
danielsaabs,1717
danielsaabs,1717
DepressedDarth,5000
franciscopunina,431
DanielMolinaOK,5000
FAlvaradoE,5000
JornalOGlobo,5000
PalabrasTiernas,5000
Jnolasco07,271
eluniversocom,5000
PhrasesMusicES,5000
PhrasesMusicES,5000
PhrasesMusicES,5000
miabuelasabia,5000
miabuelasabia,5000
eluniversocom,5000
miabuelasabia,5000
eluniversocom,5000
eluniversocom,5000
eluniversocom,5000
jaimenebotsaadi,5000
dgvargasp,293
ebervega_95,709
Allireb,41
KevinLoayza,215
JulioPatric,434
JulioPatric,434
JulioPatric,434
Allireb,41
JulioPatric,434
Allireb,41
Allireb,41
Allireb,41
Allireb,41
Allireb,41
BettyTola,5000
MashiRafael,5000
pedrozki68,4
MichelPesquera,5000
ursulastrengech,5000
eluniversocom,5000
GiuAlava,1217
RobertoBonafont,5000
RobertoBonafont,5000
cdeglobal,1172
juliocesarchoez,133
juliocesarchoez,133
carponcen,144
karin_gorda,5000
Expresoec,5000
calle7tc,5000
AdmisionesESPOL,4693
MashiRafael,5000
MashiRafael,5000
Nelly086544427,5
MashiRafael,5000
MashiRafael,5000
Vincent6453,257
DafoDiego,37
FCEB_Ecuador,750
cparedesverduga,5000
jeancarlosfv,5000
EnContactoEc,5000
EnContactoEc,5000
fwenvivo,36
CarlosGalvez21,5000
OmarDeFelippeDT,5000
drummerpaolo,3689
mucahitgayiran,470
mucahitgayiran,470
infamousfoundry,174
infamousfoundry,174
_LisbethCantos,105
ashley_pn7,122
AnaCoello_,1485
Mi_Doctor545,3132
khessyfighting,260
MiAmorEnLetras,5000
PhraseDeMarley,5000
RobertoBonafont,5000
FICine,1810
Maru_Amg,554
aLexoRuiz,312
MichelPesquera,5000
BrahmaEc,5000
TheOcean1,1836
asiesmejor2,5000
melanieJQuinde0,264
rockiarte14,11
radioholaecua,5000
FraseSexual,5000
oswaldo_vrg,5000
RadioRomanceFM,5000
RadioDisneyLA,5000
RadioDisneyLA,5000
RadioPuntoRojo,5000
WQRadio_EC,5000
WQRadio_EC,5000
Jrnochi,3018
kevinplus7,987
RadioPuntoRojo,5000
RadioPuntoRojo,5000
ARTUROMARCIANO,5000
RevistaDinero,5000
lahoraecuador,5000
TONIBIZA2,5000
NTN24co,5000
ElUniversal,5000
Expresoec,5000
AlGoreAllNews,1335
El_Universal_Mx,5000
TNTecno,5000
rcnlaradio,5000
eluniversocom,5000
ondasazuayas,5000
AlfaroMoreno,5000
JohannVarela,5000
ClaroEcua,5000
ClaroEcua,5000
CarlosGalvez21,5000
WilsnH,4480
RadioDiblu,5000
RadioDiblu,5000
MALLDELSOL_EC,5000
ESPNtenis,5000
vivianaquevedo,256
Fabianski89,221
Fabianski89,221
Fabianski89,221
KevinAndreMoran,668
Fabianski89,221
parosemena,5000
Fabianski89,221
_JoselyneP,386
_JoselyneP,386
_JoselyneP,386
_JoselyneP,386
_JoselyneP,386
_JoselyneP,386
ConsejeroUnico,5000
_JoselyneP,386
ibPactodeGracia,22
LaFerDeTC,5000
QuarterPress,5000
leonbenIarregui,5000
CarlosAriasI,2513
QuarterPress,5000
leonbenIarregui,5000
UnTalForastero,5000
leonbenIarregui,5000
eluniversocom,5000
PhrasesDisneyES,5000
comunidadgye,5000
comunidadgye,5000
comunidadgye,5000
montanertwiter,5000
RadioDiblu,5000
AndresPonce28,5000
AndresPonce28,5000
RadioDiblu,5000
PizzaChonera,332
DiegoArcos14,5000
DiegoArcos14,5000
AndresPonce28,5000
RadioDiblu,5000
Juezcentral,5000
RadioDiblu,5000
Jaimefmacias,5000
CNEL_EP,5000
CNEL_EP,5000
CNEL_EP,5000
CNEL_EP,5000
CNEL_EP,5000
CNEL_EP,5000
JaramilloMJorge,147
JaramilloMJorge,147
CNEL_EP,5000
CNEL_EP,5000
CNEL_EP,5000
CNEL_EP,5000
CNEL_EP,5000
ealbornozv,5000
ealbornozv,5000
CNEL_EP,5000
CNEL_EP,5000
fmolestina,5000
fmolestina,5000
licheduran,3568
licheduran,3568
licheduran,3568
tinocotania,5000
juanmayepez,2574
tinocotania,5000
eluniversocom,5000
TheEllenShow,5000
ABC,5000
janethinostroza,5000
janethinostroza,5000
AdalRamones,5000
TeresaArboleda,5000
TeresaArboleda,5000
TeresaArboleda,5000
paulocoelho,5000
MashiRafael,5000
lahoraecuador,5000
lahoraecuador,5000
JorgeGlas,5000
schubert_l,538
ChevroletGuayaq,358
Kosita_Seria,360
SoyLuLaLu,5000
GOLEmelec,5000
MayBayas,5000
SportMusicecu,2534
SportMusicecu,2534
QuarterPress,5000
disneywords,5000
likemike,5000
dimitrivegas,5000
dimitrivegas,5000
dimitrivegas,5000
Patricio_Ojeda,277
VickyHuiracocha,222
vkarauz,5000
VickyHuiracocha,222
jimmyjairala,5000
jimmyjairala,5000
MauricioRodasEC,5000
MauricioRodasEC,5000
