letter	frequency	facultad
1	0	DT
2	0	CELEX
3	551	EDCOM
4	602	FICT
5	1961	FIEC
6	978	FIMCP
7	571	FMAR
8	0	ICF
9	1465	FCSH
10	0	ICM
11	0	ICQA
12	0	-
13	153	PTA
14	220	PTC
15	84	PTE
16	43	PTM
17	50	PTQ
18	816	FCNM
19	1134	H
